{
	"NO_REPLY": "Цей лист згенеровано автоматично і не потребує відповіді.",
	"USER_BY_EMAIL_NOT_FOUNT":"Користувач з таким E-Mail не знайдений.",
	"TIME_NOT_EXPIRE":"Повторіть спробу через 5 хвилин.",
	"LINK_TIME_EXPIRE":"Даного посилання не знайдено, або його час вичерпано.",
	"RESTORE_LINK_SENDED":"Вам відправлено листа з посиланням для відновлення пароля, яке буде активне 24 години.",
	"ACTIVATE_LINK_SENDED":"Вам відправлено листа з посиланням для активації акаунта, яке буде активне 24 години.",
	"CONTACT_EMAIL_SENDED":"Ваше повідомлення відправлено, при необхідності ми зв`яжемось з вами.",
	"TITLE_RESTORE_PASSWORD":"Відновлення паролю",
	"TITLE_NEW_PASSWORD":"Новий пароль користувача",
	"TITLE_ACTIVATE_USER":"Активація користувача",
	"TITLE_ACTIVATED":"Реєстрація нового користувача",
	"TITLE_CONTACT":"Контактний лист від %1",
	"MSG_RESTORE_PASSWORD":"<p>Доброго дня! Для зміни пароля перейдіть по посиланю <a href=\"%1\">%1</a>. Це посилання активне 24 години.<br/> Якщо Ви не робили запит на зміну пароля, просто проігноруйте цього листа.</p>",
	"MSG_NEW_PASSWORD":"<p>Ви скористувались сервісом відновлення паролю. <br/><br/> логін: %1<br/>пароль: %2<br/><br/></p>",
	"MSG_ACTIVATE_USER":"<p>Доброго дня! Для активації акаунта перейдіть по посиланю <a href=\"%1\">%1</a>. Це посилання активне 24 години.<br/> Якщо Ви не робили запит на зміну пароля, просто проігноруйте цього листа.</p></p>",
	"MSG_ACTIVATED":"<p>Ви успішно зареєстрували акаунт на %3. <br/><br/> логін: %1<br/>пароль: %2<br/><br/></p>",
	"MSG_CONTACT":"<p>Контатні дані: <br/>Ім`я: %1<br/>Телефон: %2<br/></p><br/><p><br/>%3<br/> </p>",
	"RESTORE_SUCCESS":"Новий пароль відправлено на ваш E-Mail",
	"RESTORE_FAILURE":"Помилка при відновлені паролю",
	"ON_CLIENT_DELETE_TITLE":"ON_CLIENT_DELETE_TITLE",
	"ON_CLIENT_DELETE":"ON_CLIENT_DELETE",
	"ON_CLIENT_CREATE_TITLE":"ON_CLIENT_CREATE_TITLE",
	"ON_CLIENT_CREATE":"ON_CLIENT_CREATE login: %1, password %2"
	"ON_CLIENT_EDIT_TITLE":"ON_CLIENT_EDIT_TITLE",
	"ON_CLIENT_EDIT":"ON_CLIENT_EDIT acount type: %1, order finish %2"
	"ON_MSG_CREATE_TITLE":"Вам написав повідомлення користувач з allukr.info",
	"ON_MSG_CREATE":"Вам написав повідомлення користувач з allukr.info, <a href="http://allukr.info/mymessages.html" >читати повідомлення</a>",
	"contact_client":"Звернення на контакт. Контактне ім'я: %1, Телефон: %2<br/>"
}