{
    "ER_DB_CONNECT": "Помилка при спробі з'єднатись з СУБД",
    "ER_ENCORE_INIT_MODULE" : "Помилка при спробі ініціалізації модуля '%1', відсутній файл модуля",
    "ER_DB_SELECT" : "Помилка при виконані вибірки з СУБД: %1 під час запиту '%2'",
    "ER_DB_EXEC" : "Помилка при виконані запиту до СУБД: %1 під час запиту '%2'",
    "ER_TEMPLATES_NOT_FOUNT" : "Не знайдено жодного шаблону",
    "ER_PAGE_MODULE_INIT" : "Помилка при ініціалізації модуля '%1' для сторінки '%2'",
    "ER_REQUIRE_MODULE" : "Помилка, відсутній потрібний по залежності від '%1' модуль '%2'",
    "ER_FAILURE_ATTRIBUTE_TYPE" : "Неправильний тип параметра '%2' в функції '%1'",
    "ER_UNKNOWN_USERNAME" : "Невідомий логін користувача",
    "ER_FAILURE_PASSWORD" : "Невірний пароль",
    "ER_CREATE_USER_SESSION" : "Помилка при створенні сесії користувача",
    "ER_MULTIAUTH" : "Такий користувач вже авторизований",
    "ER_TEMPLATE_FILE_EXISTS" : "Незнайдено файлу шаблона: '%1'",
    "ER_CHUNK_FILE_EXISTS" : "Незнайдено файлу чанка: '%1'",
    "ER_SNIPPET_FILE_EXISTS" : "Незнайдено файлу сніпета: '%1'",
    "WR_SESSION_DIFF_IMPRINT" : "Увага! Неспівпадають відпечатки сесії та клієнта ip(%1)",
    "ER_SELECT_PRIVILEGES" : "Помилка при спробі отримати привілегії користувача",
    "WARNING_USER_MULTIAUTH" : "Увага! Користувач '%1' намагався авторизуватись з іншого IP(%2) під час активної сессії",
    "DEBUG_USER_LOG" : "Авторизація користувача '%1'",
    "WELCOME":"Ласкаво просимо",
    "INVALID_EMAIL":"Невірний E-Mail адрес."
}